{
  "components": [
    {
      "data": {
        "contents_checksum": "4e1a027d2572a285f4668f5427a80c51c2cf3e4207ad0c4141d78f4775d0de48",
        "source": "",
        "type": "tar"
      },
      "dependencies": [
        "core",
        "gcloud-deps-darwin-x86",
        "gcloud-deps-darwin-x86_64",
        "gcloud-deps-linux-x86",
        "gcloud-deps-linux-x86_64",
        "gcloud-deps-windows-x86",
        "gcloud-deps-windows-x86_64"
      ],
      "details": {
        "description": "Set of third_party gcloud cli dependencies.",
        "display_name": "gcloud cli dependencies"
      },
      "id": "gcloud-deps",
      "is_configuration": false,
      "is_hidden": true,
      "is_required": false,
      "platform": {},
      "platform_required": false,
      "version": {
        "build_number": 20210625183812,
        "version_string": "2021.06.25"
      }
    }
  ],
  "revision": 20210625183812,
  "schema_version": {
    "no_update": false,
    "url": "https://dl.google.com/dl/cloudsdk/channels/rapid/google-cloud-sdk.tar.gz",
    "version": 3
  },
  "version": "347.0.0"
}